xof 0302txt 0064
template Header {
 <3D82AB43-62DA-11cf-AB39-0020AF71E433>
 WORD major;
 WORD minor;
 DWORD flags;
}

template Vector {
 <3D82AB5E-62DA-11cf-AB39-0020AF71E433>
 FLOAT x;
 FLOAT y;
 FLOAT z;
}

template Coords2d {
 <F6F23F44-7686-11cf-8F52-0040333594A3>
 FLOAT u;
 FLOAT v;
}

template Matrix4x4 {
 <F6F23F45-7686-11cf-8F52-0040333594A3>
 array FLOAT matrix[16];
}

template ColorRGBA {
 <35FF44E0-6C7C-11cf-8F52-0040333594A3>
 FLOAT red;
 FLOAT green;
 FLOAT blue;
 FLOAT alpha;
}

template ColorRGB {
 <D3E16E81-7835-11cf-8F52-0040333594A3>
 FLOAT red;
 FLOAT green;
 FLOAT blue;
}

template IndexedColor {
 <1630B820-7842-11cf-8F52-0040333594A3>
 DWORD index;
 ColorRGBA indexColor;
}

template Boolean {
 <4885AE61-78E8-11cf-8F52-0040333594A3>
 WORD truefalse;
}

template Boolean2d {
 <4885AE63-78E8-11cf-8F52-0040333594A3>
 Boolean u;
 Boolean v;
}

template MaterialWrap {
 <4885AE60-78E8-11cf-8F52-0040333594A3>
 Boolean u;
 Boolean v;
}

template TextureFilename {
 <A42790E1-7810-11cf-8F52-0040333594A3>
 STRING filename;
}

template Material {
 <3D82AB4D-62DA-11cf-AB39-0020AF71E433>
 ColorRGBA faceColor;
 FLOAT power;
 ColorRGB specularColor;
 ColorRGB emissiveColor;
 [...]
}

template MeshFace {
 <3D82AB5F-62DA-11cf-AB39-0020AF71E433>
 DWORD nFaceVertexIndices;
 array DWORD faceVertexIndices[nFaceVertexIndices];
}

template MeshFaceWraps {
 <4885AE62-78E8-11cf-8F52-0040333594A3>
 DWORD nFaceWrapValues;
 Boolean2d faceWrapValues;
}

template MeshTextureCoords {
 <F6F23F40-7686-11cf-8F52-0040333594A3>
 DWORD nTextureCoords;
 array Coords2d textureCoords[nTextureCoords];
}

template MeshMaterialList {
 <F6F23F42-7686-11cf-8F52-0040333594A3>
 DWORD nMaterials;
 DWORD nFaceIndexes;
 array DWORD faceIndexes[nFaceIndexes];
 [Material]
}

template MeshNormals {
 <F6F23F43-7686-11cf-8F52-0040333594A3>
 DWORD nNormals;
 array Vector normals[nNormals];
 DWORD nFaceNormals;
 array MeshFace faceNormals[nFaceNormals];
}

template MeshVertexColors {
 <1630B821-7842-11cf-8F52-0040333594A3>
 DWORD nVertexColors;
 array IndexedColor vertexColors[nVertexColors];
}

template Mesh {
 <3D82AB44-62DA-11cf-AB39-0020AF71E433>
 DWORD nVertices;
 array Vector vertices[nVertices];
 DWORD nFaces;
 array MeshFace faces[nFaces];
 [...]
}

Header{
1;
0;
1;
}

Mesh {
 81;
 -1500.00000;0.18430;2000.00000;,
 -1500.00000;0.38430;1500.00000;,
 -2000.00000;0.18430;1500.00000;,
 -2000.00000;0.00000;2000.00000;,
 -1000.00000;0.00000;2000.00000;,
 -1000.00000;0.18430;1500.00000;,
 -500.00000;-0.49700;2000.00000;,
 -500.00000;-0.38600;1500.00000;,
 0.00000;-1.17410;2000.00000;,
 0.00000;-1.18290;1500.00000;,
 500.00000;-1.47760;2000.00000;,
 500.00000;-1.57180;1500.00000;,
 1000.00000;-1.54280;2000.00000;,
 1000.00000;-1.64870;1500.00000;,
 1500.00000;-1.27610;2000.00000;,
 1500.00000;-1.52680;1500.00000;,
 2000.00000;-0.59940;2000.00000;,
 2000.00000;-1.11090;1500.00000;,
 -1500.00000;0.18430;1000.00000;,
 -2000.00000;0.00000;1000.00000;,
 -1000.00000;-0.00020;1000.00000;,
 -500.00000;-0.53750;1000.00000;,
 0.00000;-1.24230;1000.00000;,
 500.00000;-1.38970;1000.00000;,
 1000.00000;-1.42900;1000.00000;,
 1500.00000;-1.45770;1000.00000;,
 2000.00000;-1.22410;1000.00000;,
 -1500.00000;-0.39810;500.00000;,
 -2000.00000;-0.45890;500.00000;,
 -1000.00000;-0.69880;500.00000;,
 -500.00000;-1.11620;500.00000;,
 0.00000;-1.28560;500.00000;,
 500.00000;-0.94130;500.00000;,
 1000.00000;-0.79490;500.00000;,
 1500.00000;-1.11880;500.00000;,
 2000.00000;-1.09320;500.00000;,
 -1500.00000;-1.40110;0.00000;,
 -2000.00000;-1.11190;0.00000;,
 -1000.00000;-1.82080;0.00000;,
 -500.00000;-1.97940;0.00000;,
 0.00000;-1.85200;-0.00000;,
 500.00000;-1.74310;-0.00000;,
 1000.00000;-1.27760;-0.00000;,
 1500.00000;-1.07410;-0.00000;,
 2000.00000;-0.99320;-0.00000;,
 -1500.00000;-2.06220;-500.00000;,
 -2000.00000;-1.61800;-500.00000;,
 -1000.00000;-2.43720;-500.00000;,
 -500.00000;-2.55700;-500.00000;,
 0.00000;-2.25240;-500.00000;,
 500.00000;-1.78350;-500.00000;,
 1000.00000;-1.26160;-500.00000;,
 1500.00000;-0.98070;-500.00000;,
 2000.00000;-0.85620;-500.00000;,
 -1500.00000;-2.36010;-1000.00000;,
 -2000.00000;-2.11480;-1000.00000;,
 -1000.00000;-2.83530;-1000.00000;,
 -500.00000;-2.92910;-1000.00000;,
 0.00000;-2.61780;-1000.00000;,
 500.00000;-1.91790;-1000.00000;,
 1000.00000;-0.97420;-1000.00000;,
 1500.00000;-0.47640;-1000.00000;,
 2000.00000;-0.34600;-1000.00000;,
 -1500.00000;-1.74360;-1500.00000;,
 -2000.00000;-1.78850;-1500.00000;,
 -1000.00000;-2.73490;-1500.00000;,
 -500.00000;-2.85980;-1500.00000;,
 0.00000;-2.56600;-1500.00000;,
 500.00000;-1.89480;-1500.00000;,
 1000.00000;-0.87120;-1500.00000;,
 1500.00000;-0.07840;-1500.00000;,
 2000.00000;0.14130;-1500.00000;,
 -1500.00000;-1.69810;-2000.00000;,
 -2000.00000;-1.58060;-2000.00000;,
 -1000.00000;-2.50640;-2000.00000;,
 -500.00000;-2.40430;-2000.00000;,
 0.00000;-2.15790;-2000.00000;,
 500.00000;-1.66930;-2000.00000;,
 1000.00000;-0.77210;-2000.00000;,
 1500.00000;0.07040;-2000.00000;,
 2000.00000;0.33390;-2000.00000;;
 
 128;
 3;0,1,2;,
 3;0,2,3;,
 3;4,5,1;,
 3;4,1,0;,
 3;6,7,5;,
 3;6,5,4;,
 3;8,9,7;,
 3;8,7,6;,
 3;10,11,9;,
 3;10,9,8;,
 3;12,13,11;,
 3;12,11,10;,
 3;14,15,13;,
 3;14,13,12;,
 3;16,17,15;,
 3;16,15,14;,
 3;1,18,19;,
 3;1,19,2;,
 3;5,20,18;,
 3;5,18,1;,
 3;7,21,20;,
 3;7,20,5;,
 3;9,22,21;,
 3;9,21,7;,
 3;11,23,22;,
 3;11,22,9;,
 3;13,24,23;,
 3;13,23,11;,
 3;15,25,24;,
 3;15,24,13;,
 3;17,26,25;,
 3;17,25,15;,
 3;18,27,28;,
 3;18,28,19;,
 3;20,29,27;,
 3;20,27,18;,
 3;21,30,29;,
 3;21,29,20;,
 3;22,31,30;,
 3;22,30,21;,
 3;23,32,31;,
 3;23,31,22;,
 3;24,33,32;,
 3;24,32,23;,
 3;25,34,33;,
 3;25,33,24;,
 3;26,35,34;,
 3;26,34,25;,
 3;27,36,37;,
 3;27,37,28;,
 3;29,38,36;,
 3;29,36,27;,
 3;30,39,38;,
 3;30,38,29;,
 3;31,40,39;,
 3;31,39,30;,
 3;32,41,40;,
 3;32,40,31;,
 3;33,42,41;,
 3;33,41,32;,
 3;34,43,42;,
 3;34,42,33;,
 3;35,44,43;,
 3;35,43,34;,
 3;36,45,46;,
 3;36,46,37;,
 3;38,47,45;,
 3;38,45,36;,
 3;39,48,47;,
 3;39,47,38;,
 3;40,49,48;,
 3;40,48,39;,
 3;41,50,49;,
 3;41,49,40;,
 3;42,51,50;,
 3;42,50,41;,
 3;43,52,51;,
 3;43,51,42;,
 3;44,53,52;,
 3;44,52,43;,
 3;45,54,55;,
 3;45,55,46;,
 3;47,56,54;,
 3;47,54,45;,
 3;48,57,56;,
 3;48,56,47;,
 3;49,58,57;,
 3;49,57,48;,
 3;50,59,58;,
 3;50,58,49;,
 3;51,60,59;,
 3;51,59,50;,
 3;52,61,60;,
 3;52,60,51;,
 3;53,62,61;,
 3;53,61,52;,
 3;54,63,64;,
 3;54,64,55;,
 3;56,65,63;,
 3;56,63,54;,
 3;57,66,65;,
 3;57,65,56;,
 3;58,67,66;,
 3;58,66,57;,
 3;59,68,67;,
 3;59,67,58;,
 3;60,69,68;,
 3;60,68,59;,
 3;61,70,69;,
 3;61,69,60;,
 3;62,71,70;,
 3;62,70,61;,
 3;63,72,73;,
 3;63,73,64;,
 3;65,74,72;,
 3;65,72,63;,
 3;66,75,74;,
 3;66,74,65;,
 3;67,76,75;,
 3;67,75,66;,
 3;68,77,76;,
 3;68,76,67;,
 3;69,78,77;,
 3;69,77,68;,
 3;70,79,78;,
 3;70,78,69;,
 3;71,80,79;,
 3;71,79,70;;
 
 MeshMaterialList {
  1;
  128;
  0,
  0,
  0,
  0,
  0,
  0,
  0,
  0,
  0,
  0,
  0,
  0,
  0,
  0,
  0,
  0,
  0,
  0,
  0,
  0,
  0,
  0,
  0,
  0,
  0,
  0,
  0,
  0,
  0,
  0,
  0,
  0,
  0,
  0,
  0,
  0,
  0,
  0,
  0,
  0,
  0,
  0,
  0,
  0,
  0,
  0,
  0,
  0,
  0,
  0,
  0,
  0,
  0,
  0,
  0,
  0,
  0,
  0,
  0,
  0,
  0,
  0,
  0,
  0,
  0,
  0,
  0,
  0,
  0,
  0,
  0,
  0,
  0,
  0,
  0,
  0,
  0,
  0,
  0,
  0,
  0,
  0,
  0,
  0,
  0,
  0,
  0,
  0,
  0,
  0,
  0,
  0,
  0,
  0,
  0,
  0,
  0,
  0,
  0,
  0,
  0,
  0,
  0,
  0,
  0,
  0,
  0,
  0,
  0,
  0,
  0,
  0,
  0,
  0,
  0,
  0,
  0,
  0,
  0,
  0,
  0,
  0,
  0,
  0,
  0,
  0,
  0,
  0;;
  Material {
   1.000000;1.000000;1.000000;1.000000;;
   5.000000;
   0.000000;0.000000;0.000000;;
   0.250000;0.250000;0.250000;;
   TextureFilename {
    "data/MODEL/land.bmp";
   }
  }
 }
 MeshNormals {
  81;
  -0.000369;1.000000;0.000369;,
  -0.000133;1.000000;0.000390;,
  0.000588;1.000000;0.000379;,
  0.001163;0.999999;0.000271;,
  0.001185;0.999999;0.000062;,
  0.000505;1.000000;-0.000131;,
  -0.000083;1.000000;-0.000204;,
  -0.000710;1.000000;-0.000405;,
  -0.001093;0.999999;-0.000762;,
  -0.000390;1.000000;0.000133;,
  0.000000;1.000000;0.000000;,
  0.000741;1.000000;-0.000030;,
  0.001316;0.999999;-0.000091;,
  0.001127;0.999999;-0.000127;,
  0.000381;1.000000;0.000003;,
  -0.000106;1.000000;0.000053;,
  -0.000575;1.000000;-0.000218;,
  -0.000710;1.000000;-0.000370;,
  -0.000379;1.000000;-0.000562;,
  0.000047;1.000000;-0.000736;,
  0.000772;0.999999;-0.000833;,
  0.001233;0.999999;-0.000739;,
  0.000754;1.000000;-0.000201;,
  0.000035;1.000000;0.000479;,
  -0.000044;1.000000;0.000742;,
  -0.000167;1.000000;0.000446;,
  -0.000329;1.000000;0.000238;,
  -0.000204;0.999999;-0.001130;,
  0.000318;0.999999;-0.001507;,
  0.000798;0.999998;-0.001741;,
  0.000679;0.999999;-0.001350;,
  -0.000110;1.000000;-0.000545;,
  -0.000350;1.000000;-0.000213;,
  -0.000027;1.000000;-0.000053;,
  0.000053;1.000000;0.000138;,
  -0.000088;1.000000;0.000184;,
  0.000345;0.999999;-0.001441;,
  0.000721;0.999998;-0.001652;,
  0.000650;0.999998;-0.001667;,
  0.000117;0.999999;-0.001355;,
  -0.000374;0.999999;-0.001104;,
  -0.000588;0.999999;-0.000856;,
  -0.000512;1.000000;-0.000310;,
  -0.000292;1.000000;0.000131;,
  -0.000191;1.000000;0.000220;,
  0.000785;0.999999;-0.001109;,
  0.000768;0.999999;-0.001010;,
  0.000541;0.999999;-0.000968;,
  -0.000134;1.000000;-0.000899;,
  -0.000656;1.000000;-0.000648;,
  -0.001049;0.999999;-0.000233;,
  -0.000918;1.000000;0.000189;,
  -0.000463;1.000000;0.000540;,
  -0.000253;1.000000;0.000768;,
  0.000623;1.000000;-0.000312;,
  0.000590;1.000000;0.000188;,
  0.000750;1.000000;-0.000117;,
  -0.000205;1.000000;-0.000290;,
  -0.000928;0.999999;-0.000231;,
  -0.001493;0.999999;0.000039;,
  -0.001396;0.999999;0.000436;,
  -0.000725;0.999999;0.000806;,
  -0.000320;1.000000;0.000930;,
  0.000104;1.000000;0.000767;,
  0.000828;1.000000;0.000544;,
  0.001045;0.999999;0.000258;,
  -0.000250;1.000000;0.000443;,
  -0.000959;0.999999;0.000466;,
  -0.001607;0.999999;0.000336;,
  -0.001676;0.999999;0.000343;,
  -0.000999;0.999999;0.000560;,
  -0.000469;1.000000;0.000552;,
  0.000073;1.000000;0.000253;,
  0.001278;0.999999;0.000213;,
  0.000554;1.000000;0.000608;,
  -0.000428;1.000000;0.000879;,
  -0.000937;0.999999;0.000694;,
  -0.001606;0.999999;0.000367;,
  -0.001688;0.999999;0.000231;,
  -0.000884;1.000000;0.000327;,
  -0.000527;1.000000;0.000385;;
  128;
  3;1,10,9;,
  3;1,9,0;,
  3;2,11,10;,
  3;2,10,1;,
  3;3,12,11;,
  3;3,11,2;,
  3;4,13,12;,
  3;4,12,3;,
  3;5,14,13;,
  3;5,13,4;,
  3;6,15,14;,
  3;6,14,5;,
  3;7,16,15;,
  3;7,15,6;,
  3;8,17,16;,
  3;8,16,7;,
  3;10,19,18;,
  3;10,18,9;,
  3;11,20,19;,
  3;11,19,10;,
  3;12,21,20;,
  3;12,20,11;,
  3;13,22,21;,
  3;13,21,12;,
  3;14,23,22;,
  3;14,22,13;,
  3;15,24,23;,
  3;15,23,14;,
  3;16,25,24;,
  3;16,24,15;,
  3;17,26,25;,
  3;17,25,16;,
  3;19,28,27;,
  3;19,27,18;,
  3;20,29,28;,
  3;20,28,19;,
  3;21,30,29;,
  3;21,29,20;,
  3;22,31,30;,
  3;22,30,21;,
  3;23,32,31;,
  3;23,31,22;,
  3;24,33,32;,
  3;24,32,23;,
  3;25,34,33;,
  3;25,33,24;,
  3;26,35,34;,
  3;26,34,25;,
  3;28,37,36;,
  3;28,36,27;,
  3;29,38,37;,
  3;29,37,28;,
  3;30,39,38;,
  3;30,38,29;,
  3;31,40,39;,
  3;31,39,30;,
  3;32,41,40;,
  3;32,40,31;,
  3;33,42,41;,
  3;33,41,32;,
  3;34,43,42;,
  3;34,42,33;,
  3;35,44,43;,
  3;35,43,34;,
  3;37,46,45;,
  3;37,45,36;,
  3;38,47,46;,
  3;38,46,37;,
  3;39,48,47;,
  3;39,47,38;,
  3;40,49,48;,
  3;40,48,39;,
  3;41,50,49;,
  3;41,49,40;,
  3;42,51,50;,
  3;42,50,41;,
  3;43,52,51;,
  3;43,51,42;,
  3;44,53,52;,
  3;44,52,43;,
  3;46,55,54;,
  3;46,54,45;,
  3;47,56,55;,
  3;47,55,46;,
  3;48,57,56;,
  3;48,56,47;,
  3;49,58,57;,
  3;49,57,48;,
  3;50,59,58;,
  3;50,58,49;,
  3;51,60,59;,
  3;51,59,50;,
  3;52,61,60;,
  3;52,60,51;,
  3;53,62,61;,
  3;53,61,52;,
  3;55,64,63;,
  3;55,63,54;,
  3;56,65,64;,
  3;56,64,55;,
  3;57,66,65;,
  3;57,65,56;,
  3;58,67,66;,
  3;58,66,57;,
  3;59,68,67;,
  3;59,67,58;,
  3;60,69,68;,
  3;60,68,59;,
  3;61,70,69;,
  3;61,69,60;,
  3;62,71,70;,
  3;62,70,61;,
  3;64,73,72;,
  3;64,72,63;,
  3;65,74,73;,
  3;65,73,64;,
  3;66,75,74;,
  3;66,74,65;,
  3;67,76,75;,
  3;67,75,66;,
  3;68,77,76;,
  3;68,76,67;,
  3;69,78,77;,
  3;69,77,68;,
  3;70,79,78;,
  3;70,78,69;,
  3;71,80,79;,
  3;71,79,70;;
 }
 MeshTextureCoords {
  81;
  0.125000;0.000000;
  0.125000;0.125000;
  0.000000;0.125000;
  0.000000;0.000000;
  0.250000;0.000000;
  0.250000;0.125000;
  0.375000;0.000000;
  0.375000;0.125000;
  0.500000;0.000000;
  0.500000;0.125000;
  0.625000;0.000000;
  0.625000;0.125000;
  0.750000;0.000000;
  0.750000;0.125000;
  0.875000;0.000000;
  0.875000;0.125000;
  1.000000;0.000000;
  1.000000;0.125000;
  0.125000;0.250000;
  0.000000;0.250000;
  0.250000;0.250000;
  0.375000;0.250000;
  0.500000;0.250000;
  0.625000;0.250000;
  0.750000;0.250000;
  0.875000;0.250000;
  1.000000;0.250000;
  0.125000;0.375000;
  0.000000;0.375000;
  0.250000;0.375000;
  0.375000;0.375000;
  0.500000;0.375000;
  0.625000;0.375000;
  0.750000;0.375000;
  0.875000;0.375000;
  1.000000;0.375000;
  0.125000;0.500000;
  0.000000;0.500000;
  0.250000;0.500000;
  0.375000;0.500000;
  0.500000;0.500000;
  0.625000;0.500000;
  0.750000;0.500000;
  0.875000;0.500000;
  1.000000;0.500000;
  0.125000;0.625000;
  0.000000;0.625000;
  0.250000;0.625000;
  0.375000;0.625000;
  0.500000;0.625000;
  0.625000;0.625000;
  0.750000;0.625000;
  0.875000;0.625000;
  1.000000;0.625000;
  0.125000;0.750000;
  0.000000;0.750000;
  0.250000;0.750000;
  0.375000;0.750000;
  0.500000;0.750000;
  0.625000;0.750000;
  0.750000;0.750000;
  0.875000;0.750000;
  1.000000;0.750000;
  0.125000;0.875000;
  0.000000;0.875000;
  0.250000;0.875000;
  0.375000;0.875000;
  0.500000;0.875000;
  0.625000;0.875000;
  0.750000;0.875000;
  0.875000;0.875000;
  1.000000;0.875000;
  0.125000;1.000000;
  0.000000;1.000000;
  0.250000;1.000000;
  0.375000;1.000000;
  0.500000;1.000000;
  0.625000;1.000000;
  0.750000;1.000000;
  0.875000;1.000000;
  1.000000;1.000000;;
 }
}
