xof 0302txt 0064
template Header {
 <3D82AB43-62DA-11cf-AB39-0020AF71E433>
 WORD major;
 WORD minor;
 DWORD flags;
}

template Vector {
 <3D82AB5E-62DA-11cf-AB39-0020AF71E433>
 FLOAT x;
 FLOAT y;
 FLOAT z;
}

template Coords2d {
 <F6F23F44-7686-11cf-8F52-0040333594A3>
 FLOAT u;
 FLOAT v;
}

template Matrix4x4 {
 <F6F23F45-7686-11cf-8F52-0040333594A3>
 array FLOAT matrix[16];
}

template ColorRGBA {
 <35FF44E0-6C7C-11cf-8F52-0040333594A3>
 FLOAT red;
 FLOAT green;
 FLOAT blue;
 FLOAT alpha;
}

template ColorRGB {
 <D3E16E81-7835-11cf-8F52-0040333594A3>
 FLOAT red;
 FLOAT green;
 FLOAT blue;
}

template IndexedColor {
 <1630B820-7842-11cf-8F52-0040333594A3>
 DWORD index;
 ColorRGBA indexColor;
}

template Boolean {
 <4885AE61-78E8-11cf-8F52-0040333594A3>
 WORD truefalse;
}

template Boolean2d {
 <4885AE63-78E8-11cf-8F52-0040333594A3>
 Boolean u;
 Boolean v;
}

template MaterialWrap {
 <4885AE60-78E8-11cf-8F52-0040333594A3>
 Boolean u;
 Boolean v;
}

template TextureFilename {
 <A42790E1-7810-11cf-8F52-0040333594A3>
 STRING filename;
}

template Material {
 <3D82AB4D-62DA-11cf-AB39-0020AF71E433>
 ColorRGBA faceColor;
 FLOAT power;
 ColorRGB specularColor;
 ColorRGB emissiveColor;
 [...]
}

template MeshFace {
 <3D82AB5F-62DA-11cf-AB39-0020AF71E433>
 DWORD nFaceVertexIndices;
 array DWORD faceVertexIndices[nFaceVertexIndices];
}

template MeshFaceWraps {
 <4885AE62-78E8-11cf-8F52-0040333594A3>
 DWORD nFaceWrapValues;
 Boolean2d faceWrapValues;
}

template MeshTextureCoords {
 <F6F23F40-7686-11cf-8F52-0040333594A3>
 DWORD nTextureCoords;
 array Coords2d textureCoords[nTextureCoords];
}

template MeshMaterialList {
 <F6F23F42-7686-11cf-8F52-0040333594A3>
 DWORD nMaterials;
 DWORD nFaceIndexes;
 array DWORD faceIndexes[nFaceIndexes];
 [Material]
}

template MeshNormals {
 <F6F23F43-7686-11cf-8F52-0040333594A3>
 DWORD nNormals;
 array Vector normals[nNormals];
 DWORD nFaceNormals;
 array MeshFace faceNormals[nFaceNormals];
}

template MeshVertexColors {
 <1630B821-7842-11cf-8F52-0040333594A3>
 DWORD nVertexColors;
 array IndexedColor vertexColors[nVertexColors];
}

template Mesh {
 <3D82AB44-62DA-11cf-AB39-0020AF71E433>
 DWORD nVertices;
 array Vector vertices[nVertices];
 DWORD nFaces;
 array MeshFace faces[nFaces];
 [...]
}

Header{
1;
0;
1;
}

Mesh {
 139;
 0.00938;89.32333;-70.81546;,
 50.00938;89.32333;-50.10478;,
 63.63290;80.50706;-62.18725;,
 0.42908;81.01893;-88.72697;,
 50.00938;89.32333;-50.10478;,
 70.72006;89.32333;-0.10478;,
 87.17341;79.24722;-1.11973;,
 63.63290;80.50706;-62.18725;,
 50.00938;89.32333;49.89522;,
 61.98642;79.77757;59.81173;,
 50.00938;89.32333;49.89522;,
 0.00938;89.32333;70.60590;,
 -0.34953;80.95977;87.71915;,
 61.98642;79.77757;59.81173;,
 -49.99063;89.32333;49.89521;,
 -62.61172;79.33000;59.04260;,
 -70.70129;89.32333;-0.10478;,
 -87.72692;80.65430;-0.99250;,
 -49.99063;89.32333;-50.10477;,
 -62.18266;80.50706;-61.05990;,
 0.00938;89.32333;-70.81546;,
 0.42908;81.01893;-88.72697;,
 0.00000;37.46539;-100.00000;,
 70.71068;37.46539;-70.71068;,
 65.32815;18.85141;-65.32815;,
 0.00000;18.85141;-92.38795;,
 100.00000;37.46539;0.00000;,
 92.38795;18.85141;0.00000;,
 70.71068;37.46539;70.71068;,
 65.32815;18.85141;65.32815;,
 -0.00001;37.46539;100.00000;,
 -0.00001;18.85141;92.38795;,
 -70.71069;37.46539;70.71066;,
 -65.32816;18.85141;65.32813;,
 -100.00000;37.46539;-0.00000;,
 -92.38795;18.85141;-0.00000;,
 -70.71069;37.46539;-70.71066;,
 -65.32816;18.85141;-65.32814;,
 0.00000;37.46539;-100.00000;,
 0.00000;18.85141;-92.38795;,
 50.00000;6.82697;-50.00000;,
 0.00000;6.82697;-70.71068;,
 70.71068;6.82697;0.00000;,
 50.00000;6.82697;50.00000;,
 -0.00001;6.82697;70.71068;,
 -50.00001;6.82697;49.99999;,
 -70.71068;6.82697;-0.00000;,
 -50.00001;6.82697;-49.99999;,
 0.00000;6.82697;-70.71068;,
 27.05981;-1.20752;-27.05981;,
 0.00000;-1.20752;-38.26835;,
 38.26835;-1.20752;0.00000;,
 27.05981;-1.20752;27.05981;,
 -0.00000;-1.20752;38.26835;,
 -27.05981;-1.20752;27.05980;,
 -38.26835;-1.20752;-0.00000;,
 -27.05981;-1.20752;-27.05980;,
 0.00000;-1.20752;-38.26835;,
 0.00000;-0.91864;-0.00000;,
 0.00000;-0.91864;-0.00000;,
 0.00000;-0.91864;-0.00000;,
 0.00000;-0.91864;-0.00000;,
 0.00000;-0.91864;-0.00000;,
 0.00000;-0.91864;-0.00000;,
 0.00000;-0.91864;-0.00000;,
 0.00000;-0.91864;-0.00000;,
 39.34148;101.78729;-39.72454;,
 0.03407;100.49939;-57.44346;,
 0.09564;111.47726;-39.33648;,
 27.15545;110.12753;-28.12794;,
 54.16204;99.60123;-0.46247;,
 70.72006;89.32333;-0.10478;,
 38.36399;110.12753;-1.06813;,
 37.84448;100.17332;37.48575;,
 27.15545;110.12753;25.99167;,
 0.04178;100.98453;53.51072;,
 0.09564;110.12753;37.20021;,
 -39.11490;100.33141;38.72641;,
 -26.96417;111.39124;25.99167;,
 -56.86938;100.63719;-0.38478;,
 -38.17270;113.11102;-1.06813;,
 -40.71870;100.00845;-41.11708;,
 -26.96417;111.80026;-28.12794;,
 0.03407;100.49939;-57.44346;,
 0.09564;111.47726;-39.33648;,
 66.94009;70.24335;-66.94009;,
 0.00000;68.77979;-94.90569;,
 94.51752;69.99771;0.00000;,
 100.00000;37.46539;0.00000;,
 70.71068;37.46539;-70.71068;,
 66.94009;70.24335;-66.94009;,
 66.85156;71.01297;66.85156;,
 70.71068;37.46539;70.71068;,
 -0.00001;69.87295;94.72784;,
 66.85156;71.01297;66.85156;,
 -67.15129;68.40750;67.15127;,
 -95.11774;67.47632;-0.00000;,
 -67.24062;67.63093;-67.24060;,
 0.00000;68.77979;-94.90569;,
 0.22718;145.20930;-14.49522;,
 8.63191;144.92360;-10.94558;,
 8.63191;144.92360;-10.94558;,
 12.45380;144.28085;-2.52209;,
 12.45380;144.28085;-2.52209;,
 9.12075;143.61665;6.39435;,
 9.12075;143.61665;6.39435;,
 0.22334;143.34698;10.23116;,
 0.22334;143.34698;10.23116;,
 -8.82272;143.64343;6.55516;,
 -8.82272;143.64343;6.55516;,
 -12.50543;144.33319;-2.49413;,
 -12.50543;144.33319;-2.49413;,
 -8.35929;144.97334;-11.11245;,
 -8.35929;144.97334;-11.11245;,
 0.22718;145.20930;-14.49522;,
 0.26178;175.13527;-7.96034;,
 0.28696;181.96266;-3.20484;,
 3.79027;175.04588;-6.45449;,
 3.79027;175.04588;-6.45449;,
 0.28696;181.96266;-3.20484;,
 5.37056;174.82167;-2.91957;,
 5.37056;174.82167;-2.91957;,
 0.28696;181.96266;-3.20484;,
 3.96462;174.57974;0.79146;,
 3.96462;174.57974;0.79146;,
 0.28696;181.96266;-3.20484;,
 0.26048;174.46895;2.38797;,
 0.26048;174.46895;2.38797;,
 0.28696;181.96266;-3.20484;,
 -3.51795;174.55881;0.87169;,
 -3.51795;174.55881;0.87169;,
 0.28696;181.96266;-3.20484;,
 -5.08311;174.79860;-2.90650;,
 -5.08311;174.79860;-2.90650;,
 0.28696;181.96266;-3.20484;,
 -3.35488;175.03577;-6.53556;,
 -3.35488;175.03577;-6.53556;,
 0.28696;181.96266;-3.20484;,
 0.26178;175.13527;-7.96034;;
 
 96;
 4;0,1,2,3;,
 4;4,5,6,7;,
 4;5,8,9,6;,
 4;10,11,12,13;,
 4;11,14,15,12;,
 4;14,16,17,15;,
 4;16,18,19,17;,
 4;18,20,21,19;,
 4;22,23,24,25;,
 4;23,26,27,24;,
 4;26,28,29,27;,
 4;28,30,31,29;,
 4;30,32,33,31;,
 4;32,34,35,33;,
 4;34,36,37,35;,
 4;36,38,39,37;,
 4;25,24,40,41;,
 4;24,27,42,40;,
 4;27,29,43,42;,
 4;29,31,44,43;,
 4;31,33,45,44;,
 4;33,35,46,45;,
 4;35,37,47,46;,
 4;37,39,48,47;,
 4;41,40,49,50;,
 4;40,42,51,49;,
 4;42,43,52,51;,
 4;43,44,53,52;,
 4;44,45,54,53;,
 4;45,46,55,54;,
 4;46,47,56,55;,
 4;47,48,57,56;,
 3;50,49,58;,
 3;49,51,59;,
 3;51,52,60;,
 3;52,53,61;,
 3;53,54,62;,
 3;54,55,63;,
 3;55,56,64;,
 3;56,57,65;,
 4;66,1,0,67;,
 4;66,67,68,69;,
 4;70,71,1,66;,
 4;70,66,69,72;,
 4;73,10,71,70;,
 4;73,70,72,74;,
 4;75,11,10,73;,
 4;75,73,74,76;,
 4;77,14,11,75;,
 4;77,75,76,78;,
 4;79,16,14,77;,
 4;79,77,78,80;,
 4;81,18,16,79;,
 4;81,79,80,82;,
 4;83,20,18,81;,
 4;83,81,82,84;,
 4;85,23,22,86;,
 4;85,86,3,2;,
 4;87,88,89,90;,
 4;87,90,7,6;,
 4;91,92,88,87;,
 4;91,87,6,9;,
 4;93,30,28,94;,
 4;93,94,13,12;,
 4;95,32,30,93;,
 4;95,93,12,15;,
 4;96,34,32,95;,
 4;96,95,15,17;,
 4;97,36,34,96;,
 4;97,96,17,19;,
 4;98,38,36,97;,
 4;98,97,19,21;,
 4;99,100,69,68;,
 4;101,102,72,69;,
 4;103,104,74,72;,
 4;105,106,76,74;,
 4;107,108,78,76;,
 4;109,110,80,78;,
 4;111,112,82,80;,
 4;113,114,84,82;,
 3;115,116,117;,
 4;115,117,100,99;,
 3;118,119,120;,
 4;118,120,102,101;,
 3;121,122,123;,
 4;121,123,104,103;,
 3;124,125,126;,
 4;124,126,106,105;,
 3;127,128,129;,
 4;127,129,108,107;,
 3;130,131,132;,
 4;130,132,110,109;,
 3;133,134,135;,
 4;133,135,112,111;,
 3;136,137,138;,
 4;136,138,114,113;;
 
 MeshMaterialList {
  2;
  96;
  0,
  1,
  1,
  0,
  0,
  0,
  0,
  0,
  0,
  0,
  0,
  0,
  0,
  0,
  0,
  0,
  0,
  0,
  0,
  0,
  0,
  0,
  0,
  0,
  0,
  0,
  0,
  0,
  0,
  0,
  0,
  0,
  0,
  0,
  0,
  0,
  0,
  0,
  0,
  0,
  0,
  0,
  0,
  0,
  0,
  0,
  0,
  0,
  0,
  0,
  0,
  0,
  0,
  0,
  0,
  0,
  0,
  0,
  1,
  1,
  1,
  1,
  0,
  0,
  0,
  0,
  0,
  0,
  0,
  0,
  0,
  0,
  0,
  0,
  0,
  0,
  0,
  0,
  0,
  0,
  0,
  0,
  0,
  0,
  0,
  0,
  0,
  0,
  0,
  0,
  0,
  0,
  0,
  0,
  0,
  0;;
  Material {
   0.429804;0.661961;0.800000;1.000000;;
   5.000000;
   0.000000;0.000000;0.000000;;
   0.000000;0.000000;0.000000;;
  }
  Material {
   0.768627;0.737255;0.800000;1.000000;;
   5.000000;
   0.000000;0.000000;0.000000;;
   0.000000;0.000000;0.000000;;
   TextureFilename {
    "data/MODEL/slime00.png";
   }
  }
 }
 MeshNormals {
  92;
  0.722846;0.626682;-0.291140;,
  0.007965;0.745221;-0.666770;,
  0.480537;0.749487;-0.455361;,
  0.669831;0.742383;0.013907;,
  0.474260;0.746531;0.466657;,
  0.013325;0.756566;0.653782;,
  -0.447615;0.752366;0.483307;,
  -0.663310;0.748312;0.007008;,
  -0.471427;0.736704;-0.484793;,
  -0.003186;0.839705;-0.543034;,
  0.385753;0.845147;-0.370029;,
  0.532980;0.846096;0.007351;,
  0.375487;0.852677;0.363252;,
  -0.001095;0.852930;0.522025;,
  -0.387208;0.838315;0.383793;,
  -0.548599;0.836065;0.005831;,
  -0.389589;0.835590;-0.387312;,
  -0.005733;0.732765;-0.680457;,
  0.489300;0.732578;-0.473195;,
  0.665729;0.746193;0.000994;,
  0.462294;0.766545;0.445750;,
  -0.008133;0.766015;0.642771;,
  -0.484350;0.739570;0.467377;,
  -0.684321;0.729178;0.002179;,
  -0.489829;0.726408;-0.482078;,
  -0.000000;-0.114437;-0.993430;,
  0.702706;-0.113764;-0.702326;,
  0.993591;-0.113033;0.000000;,
  0.702706;-0.113764;0.702326;,
  -0.000000;-0.114437;0.993430;,
  -0.702461;-0.114437;0.702461;,
  -0.993430;-0.114437;-0.000000;,
  -0.702461;-0.114437;-0.702461;,
  -0.000000;-0.670472;-0.741935;,
  0.524627;-0.670472;-0.524627;,
  0.741935;-0.670472;0.000000;,
  0.524627;-0.670472;0.524627;,
  -0.000000;-0.670472;0.741935;,
  -0.524627;-0.670472;0.524627;,
  -0.741935;-0.670472;0.000000;,
  -0.524627;-0.670472;-0.524627;,
  -0.000000;-0.931011;-0.364991;,
  0.258088;-0.931011;-0.258088;,
  0.364991;-0.931011;0.000000;,
  0.258088;-0.931011;0.258088;,
  -0.000000;-0.931011;0.364991;,
  -0.258088;-0.931011;0.258088;,
  -0.364991;-0.931011;0.000000;,
  -0.258088;-0.931011;-0.258088;,
  -0.000000;-0.993128;-0.117032;,
  0.082754;-0.993128;-0.082754;,
  0.117032;-0.993128;-0.000000;,
  0.082754;-0.993128;0.082754;,
  -0.000000;-0.993128;0.117032;,
  -0.082754;-0.993128;0.082754;,
  -0.117032;-0.993128;-0.000000;,
  -0.082754;-0.993128;-0.082754;,
  0.000000;-1.000000;0.000000;,
  0.000707;0.817690;-0.575658;,
  0.399972;0.833089;-0.382080;,
  0.544586;0.838614;0.012338;,
  0.383389;0.844720;0.373446;,
  0.008381;0.844194;0.535973;,
  -0.389276;0.828017;0.403548;,
  -0.579995;0.814610;0.004092;,
  -0.413971;0.808089;-0.419069;,
  -0.002341;0.331677;-0.943390;,
  0.666645;0.339563;-0.663537;,
  0.920960;0.389601;-0.006573;,
  0.643893;0.422354;0.637981;,
  -0.005904;0.408601;0.912694;,
  -0.661104;0.379152;0.647445;,
  -0.937542;0.347856;-0.003424;,
  -0.668851;0.333879;-0.664201;,
  0.648779;0.411818;-0.639916;,
  0.014076;0.414238;-0.910060;,
  0.904663;0.426060;-0.007556;,
  0.638213;0.442250;0.630158;,
  0.011961;0.450353;0.892771;,
  -0.614364;0.453550;0.645638;,
  -0.893905;0.448240;-0.003834;,
  -0.626464;0.423691;-0.654239;,
  0.012572;0.401819;-0.915633;,
  0.652342;0.400227;-0.643637;,
  0.910899;0.412589;-0.005839;,
  0.642851;0.425733;0.636784;,
  0.010507;0.431728;0.901943;,
  -0.622656;0.433543;0.651414;,
  -0.903126;0.429370;-0.002387;,
  -0.633069;0.409308;-0.657032;,
  -0.275224;0.648810;0.709434;,
  -0.570932;0.579708;-0.581357;;
  96;
  4;9,10,18,17;,
  4;10,11,19,18;,
  4;11,12,20,19;,
  4;12,13,21,20;,
  4;13,14,22,21;,
  4;14,15,23,22;,
  4;15,16,24,23;,
  4;16,9,17,24;,
  4;25,26,34,33;,
  4;26,27,35,34;,
  4;27,28,36,35;,
  4;28,29,37,36;,
  4;29,30,38,37;,
  4;30,31,39,38;,
  4;31,32,40,39;,
  4;32,25,33,40;,
  4;33,34,42,41;,
  4;34,35,43,42;,
  4;35,36,44,43;,
  4;36,37,45,44;,
  4;37,38,46,45;,
  4;38,39,47,46;,
  4;39,40,48,47;,
  4;40,33,41,48;,
  4;41,42,50,49;,
  4;42,43,51,50;,
  4;43,44,52,51;,
  4;44,45,53,52;,
  4;45,46,54,53;,
  4;46,47,55,54;,
  4;47,48,56,55;,
  4;48,41,49,56;,
  3;49,50,57;,
  3;50,51,57;,
  3;51,52,57;,
  3;52,53,57;,
  3;53,54,57;,
  3;54,55,57;,
  3;55,56,57;,
  3;56,49,57;,
  4;59,10,9,58;,
  4;59,58,1,2;,
  4;60,11,10,59;,
  4;60,59,2,3;,
  4;61,12,11,60;,
  4;61,60,3,4;,
  4;62,13,12,61;,
  4;62,61,4,5;,
  4;63,14,13,62;,
  4;63,62,5,6;,
  4;64,15,14,63;,
  4;64,63,6,7;,
  4;65,16,15,64;,
  4;65,64,7,8;,
  4;58,9,16,65;,
  4;58,65,8,1;,
  4;67,26,25,66;,
  4;67,66,17,18;,
  4;68,27,26,67;,
  4;68,67,18,19;,
  4;69,28,27,68;,
  4;69,68,19,20;,
  4;70,29,28,69;,
  4;70,69,20,21;,
  4;71,30,29,70;,
  4;71,70,21,22;,
  4;72,31,30,71;,
  4;72,71,22,23;,
  4;73,32,31,72;,
  4;73,72,23,24;,
  4;66,25,32,73;,
  4;66,73,24,17;,
  4;75,74,2,1;,
  4;74,76,3,2;,
  4;76,77,4,3;,
  4;77,78,5,4;,
  4;78,79,6,5;,
  4;79,80,7,6;,
  4;80,81,8,7;,
  4;81,75,1,8;,
  3;82,0,83;,
  4;82,83,74,75;,
  3;83,0,84;,
  4;83,84,76,74;,
  3;84,0,85;,
  4;84,85,77,76;,
  3;85,90,86;,
  4;85,86,78,77;,
  3;86,90,87;,
  4;86,87,79,78;,
  3;87,90,88;,
  4;87,88,80,79;,
  3;88,91,89;,
  4;88,89,81,80;,
  3;89,91,82;,
  4;89,82,75,81;;
 }
 MeshTextureCoords {
  139;
  0.000000;0.250000;,
  0.125000;0.250000;,
  0.125000;0.375000;,
  0.000000;0.375000;,
  0.124848;0.213322;,
  0.249764;0.213165;,
  0.247956;0.265162;,
  0.126829;0.265889;,
  0.374818;0.212997;,
  0.372159;0.262197;,
  0.375000;0.250000;,
  0.500000;0.250000;,
  0.500000;0.375000;,
  0.375000;0.375000;,
  0.625000;0.250000;,
  0.625000;0.375000;,
  0.750000;0.250000;,
  0.750000;0.375000;,
  0.875000;0.250000;,
  0.875000;0.375000;,
  1.000000;0.250000;,
  1.000000;0.375000;,
  0.000000;0.500000;,
  0.125000;0.500000;,
  0.125000;0.625000;,
  0.000000;0.625000;,
  0.250000;0.500000;,
  0.250000;0.625000;,
  0.375000;0.500000;,
  0.375000;0.625000;,
  0.500000;0.500000;,
  0.500000;0.625000;,
  0.625000;0.500000;,
  0.625000;0.625000;,
  0.750000;0.500000;,
  0.750000;0.625000;,
  0.875000;0.500000;,
  0.875000;0.625000;,
  1.000000;0.500000;,
  1.000000;0.625000;,
  0.125000;0.750000;,
  0.000000;0.750000;,
  0.250000;0.750000;,
  0.375000;0.750000;,
  0.500000;0.750000;,
  0.625000;0.750000;,
  0.750000;0.750000;,
  0.875000;0.750000;,
  1.000000;0.750000;,
  0.125000;0.875000;,
  0.000000;0.875000;,
  0.250000;0.875000;,
  0.375000;0.875000;,
  0.500000;0.875000;,
  0.625000;0.875000;,
  0.750000;0.875000;,
  0.875000;0.875000;,
  1.000000;0.875000;,
  0.062500;1.000000;,
  0.187500;1.000000;,
  0.312500;1.000000;,
  0.437500;1.000000;,
  0.562500;1.000000;,
  0.687500;1.000000;,
  0.812500;1.000000;,
  0.937500;1.000000;,
  0.125000;0.191717;,
  0.000000;0.197415;,
  0.000000;0.125000;,
  0.125000;0.125000;,
  0.250000;0.186079;,
  0.250000;0.250000;,
  0.250000;0.125000;,
  0.375000;0.183605;,
  0.375000;0.125000;,
  0.500000;0.185527;,
  0.500000;0.125000;,
  0.625000;0.190896;,
  0.625000;0.125000;,
  0.750000;0.196802;,
  0.750000;0.125000;,
  0.875000;0.199605;,
  0.875000;0.125000;,
  1.000000;0.197415;,
  1.000000;0.125000;,
  0.125000;0.412435;,
  0.000000;0.416345;,
  0.250000;0.297095;,
  0.250000;0.385896;,
  0.125000;0.385896;,
  0.125000;0.296803;,
  0.375000;0.294939;,
  0.375000;0.385896;,
  0.500000;0.413424;,
  0.375000;0.410379;,
  0.625000;0.417339;,
  0.750000;0.419827;,
  0.875000;0.419414;,
  1.000000;0.416345;,
  0.042970;0.039060;,
  0.081912;0.038823;,
  0.168088;0.038823;,
  0.207471;0.039942;,
  0.292529;0.039942;,
  0.333049;0.041097;,
  0.416951;0.041097;,
  0.458283;0.041567;,
  0.541717;0.041567;,
  0.583393;0.041786;,
  0.666607;0.041786;,
  0.708289;0.041577;,
  0.791711;0.041577;,
  0.832330;0.039660;,
  0.917670;0.039660;,
  0.957030;0.039060;,
  0.054274;0.016452;,
  0.062500;0.000000;,
  0.070649;0.016298;,
  0.179351;0.016298;,
  0.187500;0.000000;,
  0.195844;0.016689;,
  0.304156;0.016689;,
  0.312500;0.000000;,
  0.321055;0.017110;,
  0.428945;0.017110;,
  0.437500;0.000000;,
  0.446151;0.017302;,
  0.553849;0.017302;,
  0.562500;0.000000;,
  0.571226;0.017453;,
  0.678774;0.017453;,
  0.687500;0.000000;,
  0.696227;0.017454;,
  0.803773;0.017454;,
  0.812500;0.000000;,
  0.820852;0.016705;,
  0.929147;0.016705;,
  0.937500;0.000000;,
  0.945726;0.016452;;
 }
 MeshVertexColors {
  139;
  0;1.000000;1.000000;1.000000;1.000000;,
  1;1.000000;1.000000;1.000000;1.000000;,
  2;1.000000;1.000000;1.000000;1.000000;,
  3;1.000000;1.000000;1.000000;1.000000;,
  4;1.000000;1.000000;1.000000;1.000000;,
  5;1.000000;1.000000;1.000000;1.000000;,
  6;1.000000;1.000000;1.000000;1.000000;,
  7;1.000000;1.000000;1.000000;1.000000;,
  8;1.000000;1.000000;1.000000;1.000000;,
  9;1.000000;1.000000;1.000000;1.000000;,
  10;1.000000;1.000000;1.000000;1.000000;,
  11;1.000000;1.000000;1.000000;1.000000;,
  12;1.000000;1.000000;1.000000;1.000000;,
  13;1.000000;1.000000;1.000000;1.000000;,
  14;1.000000;1.000000;1.000000;1.000000;,
  15;1.000000;1.000000;1.000000;1.000000;,
  16;1.000000;1.000000;1.000000;1.000000;,
  17;1.000000;1.000000;1.000000;1.000000;,
  18;1.000000;1.000000;1.000000;1.000000;,
  19;1.000000;1.000000;1.000000;1.000000;,
  20;1.000000;1.000000;1.000000;1.000000;,
  21;1.000000;1.000000;1.000000;1.000000;,
  22;1.000000;1.000000;1.000000;1.000000;,
  23;1.000000;1.000000;1.000000;1.000000;,
  24;1.000000;1.000000;1.000000;1.000000;,
  25;1.000000;1.000000;1.000000;1.000000;,
  26;1.000000;1.000000;1.000000;1.000000;,
  27;1.000000;1.000000;1.000000;1.000000;,
  28;1.000000;1.000000;1.000000;1.000000;,
  29;1.000000;1.000000;1.000000;1.000000;,
  30;1.000000;1.000000;1.000000;1.000000;,
  31;1.000000;1.000000;1.000000;1.000000;,
  32;1.000000;1.000000;1.000000;1.000000;,
  33;1.000000;1.000000;1.000000;1.000000;,
  34;1.000000;1.000000;1.000000;1.000000;,
  35;1.000000;1.000000;1.000000;1.000000;,
  36;1.000000;1.000000;1.000000;1.000000;,
  37;1.000000;1.000000;1.000000;1.000000;,
  38;1.000000;1.000000;1.000000;1.000000;,
  39;1.000000;1.000000;1.000000;1.000000;,
  40;1.000000;1.000000;1.000000;1.000000;,
  41;1.000000;1.000000;1.000000;1.000000;,
  42;1.000000;1.000000;1.000000;1.000000;,
  43;1.000000;1.000000;1.000000;1.000000;,
  44;1.000000;1.000000;1.000000;1.000000;,
  45;1.000000;1.000000;1.000000;1.000000;,
  46;1.000000;1.000000;1.000000;1.000000;,
  47;1.000000;1.000000;1.000000;1.000000;,
  48;1.000000;1.000000;1.000000;1.000000;,
  49;1.000000;1.000000;1.000000;1.000000;,
  50;1.000000;1.000000;1.000000;1.000000;,
  51;1.000000;1.000000;1.000000;1.000000;,
  52;1.000000;1.000000;1.000000;1.000000;,
  53;1.000000;1.000000;1.000000;1.000000;,
  54;1.000000;1.000000;1.000000;1.000000;,
  55;1.000000;1.000000;1.000000;1.000000;,
  56;1.000000;1.000000;1.000000;1.000000;,
  57;1.000000;1.000000;1.000000;1.000000;,
  58;1.000000;1.000000;1.000000;1.000000;,
  59;1.000000;1.000000;1.000000;1.000000;,
  60;1.000000;1.000000;1.000000;1.000000;,
  61;1.000000;1.000000;1.000000;1.000000;,
  62;1.000000;1.000000;1.000000;1.000000;,
  63;1.000000;1.000000;1.000000;1.000000;,
  64;1.000000;1.000000;1.000000;1.000000;,
  65;1.000000;1.000000;1.000000;1.000000;,
  66;1.000000;1.000000;1.000000;1.000000;,
  67;1.000000;1.000000;1.000000;1.000000;,
  68;1.000000;1.000000;1.000000;1.000000;,
  69;1.000000;1.000000;1.000000;1.000000;,
  70;1.000000;1.000000;1.000000;1.000000;,
  71;1.000000;1.000000;1.000000;1.000000;,
  72;1.000000;1.000000;1.000000;1.000000;,
  73;1.000000;1.000000;1.000000;1.000000;,
  74;1.000000;1.000000;1.000000;1.000000;,
  75;1.000000;1.000000;1.000000;1.000000;,
  76;1.000000;1.000000;1.000000;1.000000;,
  77;1.000000;1.000000;1.000000;1.000000;,
  78;1.000000;1.000000;1.000000;1.000000;,
  79;1.000000;1.000000;1.000000;1.000000;,
  80;1.000000;1.000000;1.000000;1.000000;,
  81;1.000000;1.000000;1.000000;1.000000;,
  82;1.000000;1.000000;1.000000;1.000000;,
  83;1.000000;1.000000;1.000000;1.000000;,
  84;1.000000;1.000000;1.000000;1.000000;,
  85;1.000000;1.000000;1.000000;1.000000;,
  86;1.000000;1.000000;1.000000;1.000000;,
  87;1.000000;1.000000;1.000000;1.000000;,
  88;1.000000;1.000000;1.000000;1.000000;,
  89;1.000000;1.000000;1.000000;1.000000;,
  90;1.000000;1.000000;1.000000;1.000000;,
  91;1.000000;1.000000;1.000000;1.000000;,
  92;1.000000;1.000000;1.000000;1.000000;,
  93;1.000000;1.000000;1.000000;1.000000;,
  94;1.000000;1.000000;1.000000;1.000000;,
  95;1.000000;1.000000;1.000000;1.000000;,
  96;1.000000;1.000000;1.000000;1.000000;,
  97;1.000000;1.000000;1.000000;1.000000;,
  98;1.000000;1.000000;1.000000;1.000000;,
  99;1.000000;1.000000;1.000000;1.000000;,
  100;1.000000;1.000000;1.000000;1.000000;,
  101;1.000000;1.000000;1.000000;1.000000;,
  102;1.000000;1.000000;1.000000;1.000000;,
  103;1.000000;1.000000;1.000000;1.000000;,
  104;1.000000;1.000000;1.000000;1.000000;,
  105;1.000000;1.000000;1.000000;1.000000;,
  106;1.000000;1.000000;1.000000;1.000000;,
  107;1.000000;1.000000;1.000000;1.000000;,
  108;1.000000;1.000000;1.000000;1.000000;,
  109;1.000000;1.000000;1.000000;1.000000;,
  110;1.000000;1.000000;1.000000;1.000000;,
  111;1.000000;1.000000;1.000000;1.000000;,
  112;1.000000;1.000000;1.000000;1.000000;,
  113;1.000000;1.000000;1.000000;1.000000;,
  114;1.000000;1.000000;1.000000;1.000000;,
  115;1.000000;1.000000;1.000000;1.000000;,
  116;1.000000;1.000000;1.000000;1.000000;,
  117;1.000000;1.000000;1.000000;1.000000;,
  118;1.000000;1.000000;1.000000;1.000000;,
  119;1.000000;1.000000;1.000000;1.000000;,
  120;1.000000;1.000000;1.000000;1.000000;,
  121;1.000000;1.000000;1.000000;1.000000;,
  122;1.000000;1.000000;1.000000;1.000000;,
  123;1.000000;1.000000;1.000000;1.000000;,
  124;1.000000;1.000000;1.000000;1.000000;,
  125;1.000000;1.000000;1.000000;1.000000;,
  126;1.000000;1.000000;1.000000;1.000000;,
  127;1.000000;1.000000;1.000000;1.000000;,
  128;1.000000;1.000000;1.000000;1.000000;,
  129;1.000000;1.000000;1.000000;1.000000;,
  130;1.000000;1.000000;1.000000;1.000000;,
  131;1.000000;1.000000;1.000000;1.000000;,
  132;1.000000;1.000000;1.000000;1.000000;,
  133;1.000000;1.000000;1.000000;1.000000;,
  134;1.000000;1.000000;1.000000;1.000000;,
  135;1.000000;1.000000;1.000000;1.000000;,
  136;1.000000;1.000000;1.000000;1.000000;,
  137;1.000000;1.000000;1.000000;1.000000;,
  138;1.000000;1.000000;1.000000;1.000000;;
 }
}
